Multi-omics AD PhD walkthrough
…
---

class: middle, center, inverse

# Genome

under power (30 + 30); 

SNP data --> genotype (?)

---

```
## # A tibble: 224 × 25
##      CHR SNP        A1    A2    TEST  AFF   UNAFF CHISQ    DF      P RsID    Chr
##    <dbl> <chr>      <chr> <chr> <chr> <chr> <chr> <dbl> <dbl>  <dbl> <chr> <dbl>
##  1     1 rs1933064  A     G     TREND 30/30 20/40  3.53     1 0.0603 rs19…     1
##  2     1 rs1933064  A     G     ALLE… 30/30 20/40  3.43     1 0.0641 rs19…     1
##  3     1 kgp1974052 G     A     ALLE… 3/57  9/51   3.33     1 0.0679 rs34…     1
##  4     1 kgp1974052 G     A     TREND 3/57  9/51   3.10     1 0.0781 rs34…     1
##  5     1 rs1933064  A     <NA>  DOM   <NA>  <NA>  NA       NA 0.104  rs19…     1
##  6     1 kgp1974052 G     <NA>  DOM   <NA>  <NA>  NA       NA 0.107  rs34…     1
##  7     1 rs6587666  A     <NA>  DOM   <NA>  <NA>  NA       NA 0.107  rs65…     1
##  8     1 kgp9569568 A     <NA>  DOM   <NA>  <NA>  NA       NA 0.107  rs11…     1
##  9     1 rs3126091  G     <NA>  DOM   <NA>  <NA>  NA       NA 0.107  rs31…     1
## 10     1 kgp5132018 G     <NA>  DOM   <NA>  <NA>  NA       NA 0.107  rs31…     1
## # … with 214 more rows, and 13 more variables: MapInfo <dbl>, Alleles <chr>,
## #   Transcript(s) <chr>, Gene(s) <chr>, In-exon <chr>, Mutation(s) <chr>,
## #   BP <dbl>, NMISS <dbl>, OR <dbl>, SE <dbl>, L95 <dbl>, U95 <dbl>, STAT <dbl>
```
…
